E:\Intellij\Spring Boot\SpringBootJPA\src\main\java\com\example\demo\controller\IndexController.java
E:\Intellij\Spring Boot\SpringBootJPA\src\main\java\com\example\demo\DemoApplication.java
E:\Intellij\Spring Boot\SpringBootJPA\src\main\java\com\example\demo\controller\MainController.java
E:\Intellij\Spring Boot\SpringBootJPA\src\main\java\com\example\demo\ServletInitializer.java
